{
    "AWSEBDockerrunVersion": "1",
    "Image": {
	"Name": "iqbale99/inventory-api",
	"Update": "true"
    },
    "Ports": [
	{
	    "ContinerPort": "5000"
	}
    ],
    "Logging": "var/log/nginx"
}
